[
  {
    "_id": "56371",
    "userId": "26418",
    "courseId": "25638",
    "isPaid": true,
    "paymentMethod": "AMEX - Credit"
  },
  {
    "_id": "56371",
    "userId": "26418",
    "courseId": "25638",
    "isPaid": true,
    "paymentMethod": "AMEX - Credit"
  }
]
