[
  {
    "_id": "26418",
    "firstName": "John",
    "lastName": "Doe",
    "email": "johnsmith@gmail.com",
    "password": "john123",
    "isAdmin": false,
    "mobileNumber": "09181234567",
    "enrollments": []
  },

  {
    "_id": "58796",
    "firstName": "Jane",
    "lastName": "Doe",
    "email": "janed@gmail.com",
    "password": "jane123",
    "isAdmin": "true",
    "mobileNumber": "09994569878",
    "enrollments": []
  }
]
